{
  "cacheBust": true,
  "cleanPublic": true,
  "defaultPattern": "all",
  "defaultShowPatternInfo": false,
  "ishControlsHide": {
    "s": false,
    "m": false,
    "l": false,
    "full": false,
    "random": false,
    "disco": false,
    "hay": true,
    "mqs": false,
    "find": false,
    "views-all": false,
    "views-annotations": false,
    "views-code": false,
    "views-new": false,
    "tools-all": false,
    "tools-docs": false
  },
  "ishViewportRange": {
    "s": [240, 500],
    "m": [500, 800],
    "l": [800, 2600]
  },
  "logLevel": "error",
  "outputFileSuffixes": {
    "rendered": ".rendered",
    "rawTemplate": "",
    "markupOnly": ".markup-only"
  },
  "paths": {
    "source": {
      "root": "./src/",
      "patterns": "./src/patterns/",
      "data": "./src/styleguide/data/",
      "meta": "./src/styleguide/meta/",
      "annotations": "./src/styleguide/annotations/",
      "styleguide": "./dist/",
      "patternlabFiles": {
        "general-header": "views/partials/general-header.mustache",
        "general-footer": "views/partials/general-footer.mustache",
        "patternSection": "views/partials/patternSection.mustache",
        "patternSectionSubgroup": "views/partials/patternSectionSubgroup.mustache",
        "viewall": "views/viewall.mustache"
      },
      "css": "./dist/css",
      "fonts": "./dist/fonts",
      "img": "./dist/img",
      "js": "./dist/js",
      "vendor": "./dist/vendor"
    },
    "public": {
      "root": "./patternlab/",
      "patterns": "./patternlab/patterns/",
      "data": "./patternlab/styleguide/data/",
      "annotations": "./patternlab/annotations/",
      "styleguide": "./patternlab/styleguide/",
      "css": "./patternlab/css",
      "fonts": "./patternlab/fonts",
      "img": "./patternlab/img",
      "js": "./patternlab/js",
      "vendor": "./patternlab/dist/vendor"
    }
  },
  "patternExtension": "twig",
  "patternStateCascade": ["inprogress", "inreview", "complete"],
  "patternExportAll": false,
  "patternExportDirectory": "./pattern_exports/",
  "patternExportPatternPartials": [],
  "patternExportPreserveDirectoryStructure": true,
  "patternExportRaw": false,
  "patternMergeVariantArrays": true,
  "renderFlatPatternsOnViewAllPages": false,
  "serverOptions": {
    "wait": 1000
  },
  "starterkitSubDir": "dist",
  "styleGuideExcludes": [],
  "theme": {
    "color": "dark",
    "density": "compact",
    "layout": "horizontal",
    "noViewAll": false
  },
  "uikits": [
    {
      "name": "uikit-workshop",
      "package": "@pattern-lab/uikit-workshop",
      "outputDir": "",
      "enabled": true,
      "excludedPatternStates": [],
      "excludedTags": []
    }
  ],
  "engines": {
    "twig": {
      "namespaces": [
        {
          "id": "uikit",
          "recursive": true,
          "paths": [
            "./node_modules/@pattern-lab/uikit-workshop/views-twig"
          ]
        },
        {
          "id": "global",
          "recursive": true,
          "paths": [
            "./src/patterns/02-global"
          ]
        },
        {
          "id": "layouts",
          "recursive": true,
          "paths": [
            "./src/patterns/03-layouts"
          ]
        },
        {
          "id": "components",
          "recursive": true,
          "paths": [
            "./src/patterns/04-components"
          ]
        },
        {
          "id": "composites",
          "recursive": true,
          "paths": [
            "./src/patterns/05-composites"
          ]
        },
        {
          "id": "templates",
          "recursive": true,
          "paths": [
            "./src/patterns/06-templates"
          ]
        },
        {
          "id": "pages",
          "recursive": true,
          "paths": [
            "./src/patterns/07-pages"
          ]
        }
      ],
      "alterTwigEnv": [
        {
          "file": "./src/styleguide/drupal-twig/alter-twig.php",
          "functions": ["twig_extensions"]
        }
      ]
    }
  }
}
